<svg xml:space="preserve" viewBox="0 0 100 100" y="0" x="0" xmlns="http://www.w3.org/2000/svg" id="圖層_1" version="1.1"
	style="height: 100%; width: 100%; background: rgba(241, 242, 243, 0);" height="200px">
	<g class="ldl-scale">
		<g class="ldl-ani">
			<path fill="#abbd81"
				d="M47.3 66.4L73.7 40c1.8-1.8 1.8-4.6 0-6.4-1.8-1.8-4.6-1.8-6.4 0L44.1 56.8 32.7 45.4c-1.8-1.8-4.6-1.8-6.4 0-1.8 1.8-1.8 4.6 0 6.4l14.6 14.6c.9.9 2 1.3 3.2 1.3s2.3-.5 3.2-1.3z"
				style="fill: #2c3e50;"></path>
		</g>
	</g>
</svg>